…
### Hunting statistics in Sweden and Finland

A compilation of annual number of grey seal shot in Swedish and Finnish
waters reported to authorities. Numbers are to some extent manually
compiled and may contain minor errors, for full details contact
responsible authorities.

``` r
library(tidyverse)
hunted <- read_csv("data/hunted.csv", show_col_types = FALSE)
hunted
```

    ## # A tibble: 21 x 4
    ##     year Finland Sweden Total
    ##    <dbl>   <dbl>  <dbl> <dbl>
    ##  1  2001     144     57   201
    ##  2  2002     225     79   304
    ##  3  2003     315     79   394
    ##  4  2004     441     71   512
    ##  5  2005     452     82   534
    ##  6  2006     260    107   367
    ##  7  2007     401     96   497
    ##  8  2008     587    106   693
    ##  9  2009     617    128   745
    ## 10  2010     495     92   587
    ## # ... with 11 more rows
…
    ## [1] 0.05075862

### Data on reproductive status

Data as reported for the HELCOM indicator on reproductive status of grey
seals by The Swedish Museum of Natural History and Luke (Natural
Resources Institute Finland) since 2003.

``` r
reproduction <- read_csv("data/reproduction.csv", show_col_types = FALSE)
reproduction
```

    ## # A tibble: 917 x 5
    ##     year   age country source reproduce
    ##    <dbl> <dbl> <chr>   <chr>      <dbl>
    ##  1  2003    11 fi      hunted         1
    ##  2  2003     8 fi      hunted         1
    ##  3  2003     7 fi      hunted         1
    ##  4  2003     6 fi      hunted         1
    ##  5  2003     3 fi      hunted         0
    ##  6  2003     7 fi      hunted         0
    ##  7  2003    20 fi      hunted         1
    ##  8  2003     8 fi      hunted         1
    ##  9  2003     9 fi      hunted         1
    ## 10  2003    11 fi      hunted         1
    ## # ... with 907 more rows
…
### Ages

Ages of hunted and bycaught female animals are extracted from data as
reported for the HELCOM indicator on nutritional status by The Swedish
Museum of Natural History and Luke (Natural Resources Institute Finland)
since 2003.

``` r
ages <- read_csv("data/age_structures.csv", show_col_types = FALSE)
ages
```

    ## # A tibble: 1,302 x 4
    ##     year source   age country
    ##    <dbl> <chr>  <dbl> <chr>  
    ##  1  2004 hunted    11 fi     
    ##  2  2009 hunted     6 fi     
    ##  3  2010 hunted    12 fi     
    ##  4  2010 hunted     9 fi     
    ##  5  2010 hunted     0 fi     
    ##  6  2010 hunted     0 fi     
    ##  7  2010 hunted     8 fi     
    ##  8  2010 hunted     2 fi     
    ##  9  2010 hunted     1 fi     
    ## 10  2010 hunted     0 fi     
    ## # ... with 1,292 more rows
…
  mutate(n = replace_na(n, 0),
         prop = n / sum(n),
         stage = case_when(age == 0 ~ "pup",
                           age %in% 1:4 ~ "subadult",
                           TRUE ~"adult")) %>% 
  group_by(stage) %>% 
  mutate(group_prop = mean(prop),
         group_stable = mean(stable),
         p_bycaught_ratio = group_prop / group_stable) %>% 
  ungroup() %>% 
  select(age, stable, p_bycaught_ratio)
bycaught_ratio
```

    ## # A tibble: 46 x 3
    ##      age stable p_bycaught_ratio
    ##    <dbl>  <dbl>            <dbl>
    ##  1     0 0.172             3.12 
    ##  2     1 0.123             0.901
    ##  3     2 0.105             0.901
    ##  4     3 0.0892            0.901
    ##  5     4 0.0759            0.901
    ##  6     5 0.0647            0.250
    ##  7     6 0.0551            0.250
    ##  8     7 0.0469            0.250
    ##  9     8 0.0399            0.250
    ## 10     9 0.0340            0.250
    ## # ... with 36 more rows

and put it all together

``` r
age_data <- bycaught_ratio %>% 
  left_join(agedist_hunted) %>% 
  mutate(reproduction = b, .after = 1)
age_data
```

    ## # A tibble: 46 x 6
    ##      age reproduction stable p_bycaught_ratio fi_hunted se_hunted
    ##    <dbl>        <dbl>  <dbl>            <dbl>     <dbl>     <dbl>
    ##  1     0        0     0.172             3.12     0.317     0.146 
    ##  2     1        0     0.123             0.901    0.0806    0.0705
    ##  3     2        0     0.105             0.901    0.0453    0.0770
    ##  4     3        0.104 0.0892            0.901    0.0353    0.0689
    ##  5     4        0.222 0.0759            0.901    0.0378    0.0934
    ##  6     5        0.335 0.0647            0.250    0.0453    0.0672
    ##  7     6        0.400 0.0551            0.250    0.0302    0.0639
    ##  8     7        0.427 0.0469            0.250    0.0428    0.0410
    ##  9     8        0.436 0.0399            0.250    0.0428    0.0393
    ## 10     9        0.436 0.0340            0.250    0.0378    0.0557
    ## # ... with 36 more rows
…
This is distributed across ages according to the above calculated stable
distribution to form an in itial age-structured population.

``` r
initial_pop <- tibble(year = 2002, 
                      age = 1:46, 
                      alive_pop = n0 * stable, 
                      hunted_pop = 0,
                      bycaught_pop = 0,
                      total_pop = n0 * stable
)
initial_pop
```

    ## # A tibble: 46 x 6
    ##     year   age alive_pop hunted_pop bycaught_pop total_pop
    ##    <dbl> <int>     <dbl>      <dbl>        <dbl>     <dbl>
    ##  1  2002     1     1890.          0            0     1890.
    ##  2  2002     2     1348.          0            0     1348.
    ##  3  2002     3     1148.          0            0     1148.
    ##  4  2002     4      978.          0            0      978.
    ##  5  2002     5      833.          0            0      833.
    ##  6  2002     6      709.          0            0      709.
    ##  7  2002     7      604.          0            0      604.
    ##  8  2002     8      514.          0            0      514.
    ##  9  2002     9      438.          0            0      438.
    ## 10  2002    10      373.          0            0      373.
    ## # ... with 36 more rows
…
